module_13_application – LIS/ICT 661 - Introduction to Data Science
…
In Chapter ?@sec-confidence-intervals, we used a random sample to construct an interval estimate of the population mean. When using the theory-based approach, we relied on the Central Limit Theorem to form these intervals; when using the simulation-based approach we do it, for example, using the bootstrap percentile method. Hypothesis testing takes advantages of similar tools but the nature and the goal of the problem are different. Still, there is a direct link between confidence intervals and hypothesis testing.

In this section, let’s first look at a one-sample hypothesis test for the population mean. We’ll then establish the connection between confidence intervals and hypothesis test. This connection is direct when using the theory-based approach but requires careful consideration when using the simulation-based approach.

We’ll proceed by describing hypothesis testing in the case of two-sample problems.

The one-sample hypothesis test for the population mean

Let’s continue working with the population mean, \(\mu\). When discussing confidence intervals, we used a random sample to construct a 95% confidence interval for \(\mu\).

When performing hypothesis testing, we test a claim about \(\mu\) by collecting a random sample and using it to determine if the sample obtained is consistent with the claim made. To illustrate this idea, let’s return to the chocolate-covered almonds activity. Assume that the almonds’ company has stated on its website that the average weight of a chocolate-covered almond is exactly 3.6 grams. Imagine that we aren’t so sure about this claim and believe that the a chocolate-covered almond’s weight is different than 3.6 grams on average. To test these competing claims, we’ll again use the random sample almonds_sample_100 from the moderndive package. Here are the first 10 lines:

almonds_sample_100

# A tibble: 100 × 3
# Groups:   replicate [1]
   replicate    ID weight
       <int> <int>  <dbl>
 1         1   166    4.2
 2         1  1215    4.2
 3         1  1899    3.9
 4         1  1912    3.8
 5         1  4637    3.3
 6         1   511    3.5
 7         1   127    4  
 8         1  4419    3.5
 9         1  4729    4.2
10         1  2574    4.1
# ℹ 90 more rows
…
infer package workflow

1. specify variables

Recall that we use the specify() verb to specify the response variable and, if needed, any explanatory variables for our study. In this case, since we are interested in any potential effects of genre on popularity rates, we set popular_or_not as the response variable and track_genre as the explanatory variable. We do so using formula = response ~ explanatory where response is the name of the response variable in the data frame and explanatory is the name of the explanatory variable. So in our case it is popular_or_not ~ track_genre.

Furthermore, since we are interested in the proportion of songs "popular", and not the proportion of songs not popular, we set the argument success to "popular".

spotify_metal_deephouse |> 
  specify(formula = popular_or_not ~ track_genre, success = "popular")

Response: popular_or_not (factor)
Explanatory: track_genre (factor)
# A tibble: 2,000 × 2
   popular_or_not track_genre
   <fct>          <fct>      
 1 popular        deep-house 
 2 popular        deep-house 
 3 popular        deep-house 
 4 popular        deep-house 
 5 popular        deep-house 
 6 popular        deep-house 
 7 popular        deep-house 
 8 popular        deep-house 
 9 popular        deep-house 
10 popular        deep-house 
# ℹ 1,990 more rows
…
"point" for hypotheses involving a single sample or

"independence" for hypotheses involving two samples.

In our case, since we have two samples (the metal songs and the deep house songs), we set null = "independence".

spotify_metal_deephouse |> 
  specify(formula = popular_or_not ~ track_genre, success = "popular") |> 
  hypothesize(null = "independence")

Response: popular_or_not (factor)
Explanatory: track_genre (factor)
Null Hypo...
# A tibble: 2,000 × 2
   popular_or_not track_genre
   <fct>          <fct>      
 1 popular        deep-house 
 2 popular        deep-house 
 3 popular        deep-house 
 4 popular        deep-house 
 5 popular        deep-house 
 6 popular        deep-house 
 7 popular        deep-house 
 8 popular        deep-house 
 9 popular        deep-house 
10 popular        deep-house 
# ℹ 1,990 more rows
…
Now that we have generated 1000 replicates of “shuffles” assuming the null hypothesis is true, let’s calculate() the appropriate summary statistic for each of our 1000 shuffles. From Section Section 1.3, point estimates related to hypothesis testing have a specific name: test statistics. Since the unknown population parameter of interest is the difference in population proportions \(p_{m} - p_{d}\), the test statistic here is the difference in sample proportions \(\widehat{p}_{m} - \widehat{p}_{f}\).

For each of our 1000 shuffles, we can calculate this test statistic by setting stat = "diff in props". Furthermore, since we are interested in \(\widehat{p}_{m} - \widehat{p}_{d}\) we set order = c("metal", "deep-house"). As we stated earlier, the order of the subtraction does not matter, so long as you stay consistent throughout your analysis and tailor your interpretations accordingly. Let’s save the result in a data frame called null_distribution:

null_distribution <- spotify_metal_deephouse |> 
  specify(formula = popular_or_not ~ track_genre, success = "popular") |> 
  hypothesize(null = "independence") |> 
  generate(reps = 1000, type = "permute") |> 
  calculate(stat = "diff in props", order = c("metal", "deep-house"))
null_distribution

Response: popular_or_not (factor)
Explanatory: track_genre (factor)
Null Hypo...
# A tibble: 1,000 × 2
   replicate    stat
       <int>   <dbl>
 1         1  0.0140
 2         2 -0.0420
 3         3  0.0220
 4         4 -0.0140
 5         5 -0.0180
 6         6 -0.0160
 7         7  0.0160
 8         8 -0.0400
 9         9  0.0140
10        10  0.0120
# ℹ 990 more rows
…
So what value should you use for \(\alpha\)? While different fields of study have adopted different conventions, although \(\alpha = 0.05\) is perhaps the most popular threshold, there is nothing special about this or any other number. Please review Subsection Section 1.1.1 and our discussion about \(\alpha\) and our tolerance for uncertainty. In addition, observe that choosing a relatively small value of \(\alpha\) reduces our chances of rejecting the null hypothesis, and also of committing a Type I Error; but increases the probability of committing a Type II Error.

On the other hand, choosing a relatively large value of \(\alpha\) increases the chances of failing to reject the null hypothesis, and also of committing a Type I Error; but reduces the probability of committing a Type II Error. Depending on the problem at hand, we may be willing to have a larger significance level in certain scenarios and a smaller significance level in others.

Case study: are action or romance movies rated higher?

Let’s apply our knowledge of hypothesis testing to answer the question: “Are action or romance movies rated higher on IMDb?”. IMDb is a database on the internet providing information on movie and television show casts, plot summaries, trivia, and ratings. We will investigate if, on average, action or romance movies get higher ratings on IMDb.

IMDb ratings data

The movies dataset in the ggplot2movies package contains information on 58,788 movies that have been rated by users of IMDb.com.

movies

# A tibble: 58,788 × 24
   title     year length budget rating votes    r1    r2    r3    r4    r5    r6
   <chr>    <int>  <int>  <int>  <dbl> <int> <dbl> <dbl> <dbl> <dbl> <dbl> <dbl>
 1 $         1971    121     NA    6.4   348   4.5   4.5   4.5   4.5  14.5  24.5
 2 $1000 a…  1939     71     NA    6      20   0    14.5   4.5  24.5  14.5  14.5
 3 $21 a D…  1941      7     NA    8.2     5   0     0     0     0     0    24.5
 4 $40,000   1996     70     NA    8.2     6  14.5   0     0     0     0     0  
 5 $50,000…  1975     71     NA    3.4    17  24.5   4.5   0    14.5  14.5   4.5
 6 $pent     2000     91     NA    4.3    45   4.5   4.5   4.5  14.5  14.5  14.5
 7 $windle   2002     93     NA    5.3   200   4.5   0     4.5   4.5  24.5  24.5
 8 '15'      2002     25     NA    6.7    24   4.5   4.5   4.5   4.5   4.5  14.5
 9 '38       1987     97     NA    6.6    18   4.5   4.5   4.5   0     0     0  
10 '49-'17   1917     61     NA    6      51   4.5   0     4.5   4.5   4.5  44.5
# ℹ 58,778 more rows
# ℹ 12 more variables: r7 <dbl>, r8 <dbl>, r9 <dbl>, r10 <dbl>, mpaa <chr>,
#   Action <int>, Animation <int>, Comedy <int>, Drama <int>,
#   Documentary <int>, Romance <int>, Short <int>

We will focus on a random sample of 68 movies that are classified as either “action” or “romance” movies but not both. We disregard movies that are classified as both so that we can assign all 68 movies into either category. Furthermore, since the original movies dataset was a little messy, we provide a pre-wrangled version of our data in the movies_sample data frame included in the moderndive package. If you are curious, you can look at the necessary data-wrangling code to do this on GitHub.

movies_sample

# A tibble: 68 × 4
   title                     year rating genre  
   <chr>                    <int>  <dbl> <chr>  
 1 Underworld                1985    3.1 Action 
 2 Love Affair               1932    6.3 Romance
 3 Junglee                   1961    6.8 Romance
 4 Eversmile, New Jersey     1989    5   Romance
 5 Search and Destroy        1979    4   Action 
 6 Secreto de Romelia, El    1988    4.9 Romance
 7 Amants du Pont-Neuf, Les  1991    7.4 Romance
 8 Illicit Dreams            1995    3.5 Action 
 9 Kabhi Kabhie              1976    7.7 Romance
10 Electric Horseman, The    1979    5.8 Romance
# ℹ 58 more rows
…
In other words, the null hypothesis \(H_0\) suggests that both romance and action movies have the same mean rating. This is the “hypothesized universe” we will assume is true. On the other hand, the alternative hypothesis \(H_A\) suggests that there is a difference. Unlike the one-sided alternative we used in the popularity exercise \(H_A: p_m - p_f > 0\), we are now considering a two-sided alternative of \(H_A: \mu_a - \mu_r \neq 0\).

Furthermore, we will pre-specify a low significance level of \(\alpha\) = 0.001. By setting this value low, all things being equal, there is a lower chance that the \(p\)-value will be less than \(\alpha\). Thus, there is a lower chance that we will reject the null hypothesis \(H_0\) in favor of the alternative hypothesis \(H_A\). In other words, we will reject the hypothesis that there is no difference in mean ratings for all action and romance movies, only if we have quite strong evidence. This is known as a “conservative” hypothesis testing procedure.

1. specify variables

Let’s now perform all the steps of the infer workflow. We first specify() the variables of interest in the movies_sample data frame using the formula rating ~ genre. This tells infer that the numerical variable rating is the outcome variable, while the binary variable genre is the explanatory variable. Note that unlike previously when we were interested in proportions, since we are now interested in the mean of a numerical variable, we do not need to set the success argument.

movies_sample |> 
  specify(formula = rating ~ genre)

Response: rating (numeric)
Explanatory: genre (factor)
# A tibble: 68 × 2
   rating genre  
    <dbl> <fct>  
 1    3.1 Action 
 2    6.3 Romance
 3    6.8 Romance
 4    5   Romance
 5    4   Action 
 6    4.9 Romance
 7    7.4 Romance
 8    3.5 Action 
 9    7.7 Romance
10    5.8 Romance
# ℹ 58 more rows

Observe at this point that the data in movies_sample has not changed. The only change so far is the newly defined Response: rating (numeric) and Explanatory: genre (factor) meta-data.

2. hypothesize the null

We set the null hypothesis \(H_0: \mu_a - \mu_r = 0\) by using the hypothesize() function. Since we have two samples, action and romance movies, we set null to be "independence" as we described in Section Section 1.4.

movies_sample |> 
  specify(formula = rating ~ genre) |> 
  hypothesize(null = "independence")

Response: rating (numeric)
Explanatory: genre (factor)
Null Hypothesis: indep...
# A tibble: 68 × 2
   rating genre  
    <dbl> <fct>  
 1    3.1 Action 
 2    6.3 Romance
 3    6.8 Romance
 4    5   Romance
 5    4   Action 
 6    4.9 Romance
 7    7.4 Romance
 8    3.5 Action 
 9    7.7 Romance
10    5.8 Romance
# ℹ 58 more rows
…
4. calculate summary statistics

Now that we have 1000 replicated “shuffles” assuming the null hypothesis \(H_0\) that both Action and Romance movies on average have the same ratings on IMDb, let’s calculate() the appropriate summary statistic for these 1000 replicated shuffles. From Section Section 1.3, summary statistics relating to hypothesis testing have a specific name: test statistics. Since the unknown population parameter of interest is the difference in population means \(\mu_{a} - \mu_{r}\), the test statistic of interest here is the difference in sample means \(\overline{x}_{a} - \overline{x}_{r}\).

For each of our 1000 shuffles, we can calculate this test statistic by setting stat = "diff in means". Furthermore, since we are interested in \(\overline{x}_{a} - \overline{x}_{r}\), we set order = c("Action", "Romance"). Let’s save the results in a data frame called null_distribution_movies:

null_distribution_movies <- movies_sample |> 
  specify(formula = rating ~ genre) |> 
  hypothesize(null = "independence") |> 
  generate(reps = 1000, type = "permute") |> 
  calculate(stat = "diff in means", order = c("Action", "Romance"))
null_distribution_movies

# A tibble: 1,000 × 2
   replicate   stat
       <int>  <dbl>
 1         1  0.511
 2         2  0.346
 3         3 -0.327
 4         4 -0.209
 5         5 -0.433
 6         6 -0.103
 7         7  0.387
 8         8  0.169
 9         9  0.257
10        10  0.334
# ℹ 990 more rows
…
