module_14_application – LIS/ICT 661 - Introduction to Data Science
…
57
1.8
82.6
1.26
0.542

We can retrieve this information for each observation. To demonstrate, here are the first few rows:

simple_model |>
  get_regression_points()

# A tibble: 183 × 5
      ID fert_rate life_exp fert_rate_hat residual
   <int>     <dbl>    <dbl>         <dbl>    <dbl>
 1     1       4.3     53.6          5.24   -0.937
 2     2       1.4     79.5          1.69   -0.287
 3     3       2.7     78.0          1.88    0.815
 4     4       5       62.1          4.07    0.926
 5     5       1.6     77.8          1.92   -0.316
 6     6       1.9     78.3          1.85    0.054
 7     7       1.6     76.1          2.15   -0.546
 8     8       1.6     83.1          1.19    0.411
 9     9       1.5     82.3          1.30    0.198
10    10       1.6     74.2          2.42   -0.818
# ℹ 173 more rows
…
We also make assumptions about the distribution of the error term, \(\epsilon\). The assumed expected value of the error term is zero, and the assumed standard deviation is equal to a positive constant called \(\sigma\), or in mathematical terms: \(E(\epsilon) = 0\) and \(SD(\epsilon) = \sigma.\)

Let’s review the meaning of these quantities. If you were to take a large number of observations from this population, we would expect the error terms sometimes to be greater than zero and sometimes less than zero, but on average, be equal to zero. Similarly, some error terms will be very close to zero and others very far from zero, but on average, we would expect them to be roughly \(\sigma\) units away from zero.

Remember that the square of the standard deviation is called the variance, so \(Var(\epsilon) = \sigma^2\). The variance of the error term is equal to \(\sigma^2\) regardless of the value of \(X\). This property is called homoskedasticity or constancy of the variance. It will be useful later on in our analysis.

Using a sample for inference

As we did with confidence intervals and hypothesis testing, we’ll use a sample to estimate the parameters in the population. Let’s use data collected from the Old Faithful Geyser in Yellowstone National Park in Wyoming, USA. This dataset contains the duration of the geyser eruption in seconds and the waiting time to the next eruption in minutes. The duration of the current eruption can help determine fairly well the waiting time to the next eruption. For this example, we use a sample of data collected by volunteers and saved on the website https://geysertimes.org/ between June 1st, 2024 and August 19th, 2024.

These data are stored in the old_faithful_2024 data frame in the moderndive package. While data collected by volunteers are not a true random sample, as the volunteers could introduce some sort of bias, the eruptions selected by the volunteers had no specific patterns. Furthermore, beyond the individual skill of each volunteer measuring the times appropriately, no response bias or preference seems to be present. Therefore, it seems safe to consider the data a random sample. Here are the first ten rows:

old_faithful_2024

# A tibble: 114 × 6
   eruption_id date        time waiting webcam duration
         <dbl> <date>     <dbl>   <dbl> <chr>     <dbl>
 1     1473854 2024-08-19   538     180 Yes         235
 2     1473352 2024-08-15  1541     184 Yes         259
 3     1473337 2024-08-15  1425     116 Yes         137
 4     1473334 2024-08-15  1237     188 Yes         222
 5     1473331 2024-08-15  1131     106 Yes         105
 6     1473328 2024-08-15   944     187 Yes         180
 7     1473207 2024-08-14  1231     182 Yes         244
 8     1473201 2024-08-14  1041     190 Yes         278
 9     1473137 2024-08-13  1810     138 Yes         249
10     1473108 2024-08-13  1624     186 Yes         262
# ℹ 104 more rows
…
Figure 5: Example of observed value, fitted value, and residual.

We can calculate all the \(n = 114\) residuals by applying the get_regression_points() function to the regression model model_1. Observe how the resulting values of residual are roughly equal to waiting - waiting_hat (there may be a slight difference due to rounding error).

# Fit regression model:
model_1 <- lm(waiting ~ duration, data = old_faithful_2024)
# Get regression points:
fitted_and_residuals <- get_regression_points(model_1)
fitted_and_residuals

# A tibble: 114 × 5
      ID waiting duration waiting_hat residual
   <int>   <dbl>    <dbl>       <dbl>    <dbl>
 1     1     180      235        167.    13.3 
 2     2     184      259        176.     8.43
 3     3     116      137        130.   -14.3 
 4     4     188      222        162.    26.2 
 5     5     106      105        118.   -12.4 
 6     6     187      180        146.    40.7 
 7     7     182      244        170.    12.0 
 8     8     190      278        183.     7.38
 9     9     138      249        172.   -33.9 
10    10     186      262        177.     9.31
# ℹ 104 more rows
…
calculate() the summary statistic of interest: the fitted slope \(b_1\).

Using this bootstrap distribution, we’ll construct the 95% confidence interval using the percentile method and (if appropriate) the standard error method as well. It is important to note in this case that the bootstrapping with replacement is done row-by-row. Thus, the original pairs of waiting and duration values are always kept together, but different pairs of waiting and duration values may be resampled multiple times. The resulting confidence interval will denote a range of plausible values for the unknown population slope \(\beta_1\) quantifying the relationship between waiting times and duration for Old Faithful eruptions.

Let’s first construct the bootstrap distribution for the fitted slope \(b_1\):

bootstrap_distn_slope <- old_faithful_2024 |> 
  specify(formula = waiting ~ duration) |>
  generate(reps = 1000, type = "bootstrap") |> 
  calculate(stat = "slope")
bootstrap_distn_slope

Response: waiting (numeric)
Explanatory: duration (numeric)
# A tibble: 1,000 × 2
   replicate  stat
       <int> <dbl>
 1         1 0.334
 2         2 0.332
 3         3 0.385
 4         4 0.381
 5         5 0.369
 6         6 0.371
 7         7 0.337
 8         8 0.418
 9         9 0.343
10        10 0.359
# ℹ 990 more rows
…
We plan to regress total_cup_points (response variable) on the numerical explanatory variables aroma, flavor, and moisture_percentage and the categorical explanatory variable with four categories; Africa, Asia, North America, and South America. Before proceeding, we construct a new data frame called coffee_data by keeping the variables of interest. In addition, the variable continent_of_origin has been read into R with type character, and we want to make it type factor. We do this by using dplyr verbs and including the command as.factor() inside mutate() to make continent_of_origin a factor with the ordering of "Africa", "Asia", "North America", and "South America".

coffee_data <- coffee_quality |>
  select(aroma, 
         flavor, 
         moisture_percentage, 
         continent_of_origin, 
         total_cup_points) |>
  mutate(continent_of_origin = as.factor(continent_of_origin))

Here are the first ten rows of coffee_data:

coffee_data

# A tibble: 207 × 5
   aroma flavor moisture_percentage continent_of_origin total_cup_points
   <dbl>  <dbl>               <dbl> <fct>                          <dbl>
 1  8.58   8.5                 11.8 South America                   89.3
 2  8.5    8.5                 10.5 Asia                            87.6
 3  8.33   8.42                10.4 Asia                            87.4
 4  8.08   8.17                11.8 North America                   87.2
 5  8.33   8.33                11.6 South America                   87.1
 6  8.33   8.33                10.7 North America                   87  
 7  8.33   8.17                 9.1 Asia                            86.9
 8  8.25   8.25                10   Asia                            86.8
 9  8.08   8.08                10.8 Asia                            86.7
10  8.08   8.17                11   Africa                          86.5
# ℹ 197 more rows
…
We will now find the bootstrap distribution for the partial slopes using the infer workflow. Just like in Section Section 1.3.1, we are now resampling entire rows of values to construct the bootstrap distribution for the fitted partial slopes using our full sample of 207 coffees:

specify() the variables of interest in coffee_data with the formula: total_cup_points ~ aroma + flavor + moisture_percentage + continent_of_origin.

generate() replicates by using bootstrap resampling with replacement from the original sample of 207 coffees. We generate reps = 1000 replicates using type = "bootstrap" for a total of \(207 \cdot 1000 = 207,000\) rows.

coffee_data |>
  specify(
    total_cup_points ~ continent_of_origin + aroma + flavor + moisture_percentage
  ) |>
  generate(reps = 1000, type = "bootstrap")

Response: total_cup_points (numeric)
Explanatory: continent_of_origin (factor...
# A tibble: 207,000 × 6
# Groups:   replicate [1,000]
   replicate total_cup_points continent_of_origin aroma flavor
       <int>            <dbl> <fct>               <dbl>  <dbl>
 1         1             83.2 Africa               7.92   7.67
 2         1             83.7 Asia                 7.58   7.75
 3         1             85.5 Asia                 8.17   8.08
 4         1             82   North America        7.42   7.42
 5         1             84.4 Asia                 7.83   8   
 6         1             86.1 Asia                 8.17   8.08
 7         1             84.1 North America        7.67   7.83
 8         1             83.7 Asia                 7.83   7.83
 9         1             82.8 North America        7.33   7.5 
10         1             84.3 North America        7.83   7.83
# ℹ 206,990 more rows
# ℹ 1 more variable: moisture_percentage <dbl>

Lastly, fit() models for each of the replicates in the boot_distribution_mlr variable. Here, mlr stands for multiple linear regression.

boot_distribution_mlr <- coffee_quality |>
  specify(
    total_cup_points ~ continent_of_origin + aroma + flavor + moisture_percentage
  ) |>
  generate(reps = 1000, type = "bootstrap") |>
  fit()
boot_distribution_mlr

# A tibble: 7,000 × 3
# Groups:   replicate [1,000]
   replicate term                             estimate
       <int> <chr>                               <dbl>
 1         1 intercept                        37.4    
 2         1 continent_of_originAsia          -0.267  
 3         1 continent_of_originNorth America -0.204  
 4         1 continent_of_originSouth America -0.459  
 5         1 aroma                             1.81   
 6         1 flavor                            4.20   
 7         1 moisture_percentage              -0.00644
 8         2 intercept                        34.4    
 9         2 continent_of_originAsia          -0.426  
10         2 continent_of_originNorth America -0.238  
# ℹ 6,990 more rows
…
Null distribution for the partial slopes

We can also compute the null distribution for the partial slopes using the infer workflow. We will shuffle the values of the response variable total_cup_points across the values of the regressors continent_of_origin, aroma, flavor, and moisture_percentage in the coffee_data dataset. This is done under the assumption of independence between the response and the regressors. The syntax is similar to constructing the bootstrap distribution, but we use type = "permute" and set hypothesize to null = "independence". We’ll set our pseudo-random number generation seed to 2024 in order for the reader to get the same results with the shuffling.

set.seed(2024)
null_distribution_mlr <- coffee_quality |>
  specify(total_cup_points ~ continent_of_origin + aroma + 
      flavor + moisture_percentage) |>
  hypothesize(null = "independence") |>
  generate(reps = 1000, type = "permute") |>
  fit()
null_distribution_mlr

# A tibble: 7,000 × 3
# Groups:   replicate [1,000]
   replicate term                             estimate
       <int> <chr>                               <dbl>
 1         1 intercept                         82.3   
 2         1 continent_of_originAsia           -0.194 
 3         1 continent_of_originNorth America  -0.371 
 4         1 continent_of_originSouth America  -0.0830
 5         1 aroma                             -1.22  
 6         1 flavor                             1.52  
 7         1 moisture_percentage               -0.0748
 8         2 intercept                         82.8   
 9         2 continent_of_originAsia           -0.239 
10         2 continent_of_originNorth America  -0.617 
# ℹ 6,990 more rows
…
